{
  "alpha-nvim": { "branch": "main", "commit": "41283fb402713fc8b327e60907f74e46166f4cfd" },
  "bufferline.nvim": { "branch": "main", "commit": "243893ba9d5d1049dd451a25cab32ec7f8f67bcf" },
  "lazy.nvim": { "branch": "main", "commit": "bef521ac89c8d423f9d092e37b58e8af0c099309" },
  "lualine.nvim": { "branch": "master", "commit": "b5e8bb642138f787a2c1c5aedc2a78cb2cebbd67" },
  "neo-tree.nvim": { "branch": "v3.x", "commit": "16d1b194376bf1fc2acd89ccb3c29ba8315bfcea" },
  "neoscroll.nvim": { "branch": "master", "commit": "21d52973bde32db998fc8b6590f87eb3c3c6d8e4" },
  "nui.nvim": { "branch": "main", "commit": "cbd2668414331c10039278f558630ed19b93e69b" },
  "nvim-snazzi": { "branch": "master", "commit": "58e7cd27221c4ce499a935b9ba81d6a49840cb70" },
  "nvim-web-devicons": { "branch": "master", "commit": "3ee60deaa539360518eaab93a6c701fe9f4d82ef" },
  "plenary.nvim": { "branch": "master", "commit": "8aad4396840be7fc42896e3011751b7609ca4119" },
  "vim-snazzy": { "branch": "master", "commit": "d979964b4dc0d6860f0803696c348c5a912afb9e" },
  "vim-snazzyfied": { "branch": "master", "commit": "488c946857af9cb6ea0967c0c8e10074e0ea73ee" },
  "vimwiki": { "branch": "dev", "commit": "69318e74c88ef7677e2496fd0a836446ceac61e8" }
}